# This file uses centimeters as units for non-parametric coordinates.

g default
v 6.686876 3.414818 0.979471
v 7.272516 4.000459 0.979471
v 7.539183 3.538578 1.122996
v 7.148756 3.148151 1.122996
v 8.072517 4.214818 0.979471
v 8.072517 3.681484 1.122996
v 8.872517 4.000459 0.979471
v 8.605850 3.538578 1.122996
v 9.458157 3.414818 0.979471
v 8.996277 3.148151 1.122996
v 9.672516 2.614818 0.979471
v 9.139183 2.614818 1.122996
v 9.458157 1.814818 0.979471
v 8.996277 2.081485 1.122996
v 8.872517 1.229177 0.979471
v 8.605850 1.691057 1.122996
v 8.072517 1.014818 0.979471
v 8.072517 1.548151 1.122996
v 7.272516 1.229177 0.979471
v 7.539183 1.691057 1.122996
v 6.686876 1.814818 0.979471
v 7.148756 2.081485 1.122996
v 6.472517 2.614818 0.979471
v 7.005850 2.614818 1.122996
v 7.805851 3.076698 1.150005
v 7.610636 2.881485 1.150005
v 8.072517 3.148151 1.150005
v 8.339184 3.076698 1.150005
v 8.534397 2.881485 1.150005
v 8.605850 2.614818 1.150005
v 8.534397 2.348151 1.150005
v 8.339184 2.152938 1.150005
v 8.072517 2.081485 1.150005
v 7.805851 2.152938 1.150005
v 7.610636 2.348151 1.150005
v 7.539183 2.614818 1.150005
v 8.072517 2.614818 1.152027
v 9.950319 -2.047347 0.914829
v 6.419235 -2.047347 0.914829
v 6.419235 0.441362 0.914829
v 9.950319 0.441362 0.914829
v 9.950319 0.441362 0.388778
v 6.419235 0.441362 -0.137274
v 9.950319 0.441362 -0.137274
v 9.950319 -2.047347 -0.137274
v 6.419235 -2.047346 -0.137274
v 9.950319 -2.047346 0.388778
v 10.322498 0.441362 0.520277
v 10.322498 -2.047347 0.520277
v 10.322498 -2.047347 0.783330
v 10.322498 0.441362 0.783330
v 10.190998 0.441362 0.914829
v 10.190998 -2.047347 0.914829
v 9.950319 -4.638288 0.914829
v 6.419235 -4.638288 0.914829
v 6.419235 -2.149579 0.914829
v 9.950319 -2.149579 0.914829
v 9.950319 -2.149579 0.388778
v 6.419235 -2.149579 -0.137274
v 9.950319 -2.149579 -0.137274
v 9.950319 -4.638288 -0.137274
v 6.419235 -4.638288 -0.137274
v 9.950319 -4.638288 0.388778
v 10.322498 -2.149579 0.520277
v 10.322498 -4.638288 0.520277
v 10.322498 -4.638288 0.783330
v 10.322498 -2.149579 0.783330
v 10.190998 -2.149579 0.914829
v 10.190998 -4.638288 0.914829
v 10.000000 -5.347760 1.000000
v 10.000000 -5.347760 -1.000000
v 6.313620 -5.347760 1.000000
v -10.000000 -5.347760 1.000000
v -10.000000 -5.347760 -1.000000
v -10.000000 4.652240 -1.000000
v -10.000000 4.652240 1.000000
v -8.990092 3.638662 1.000000
v -8.990092 -4.340182 1.000000
v -8.866748 3.473823 0.916620
v 4.894632 3.473823 0.916620
v 4.894632 -4.175344 0.916620
v -8.866748 -4.175344 0.916620
v 10.000000 4.652240 -1.000000
v 10.000000 4.652240 1.000000
v 10.004206 -4.735744 -0.278720
v 6.324486 -4.735744 -0.278720
v 6.324486 0.531964 -0.278720
v 10.004206 0.531964 -0.278720
v 5.017978 -4.340182 1.000000
v 6.324486 0.531964 1.000000
v 10.004206 0.531964 1.000000
v 10.004206 -4.735744 1.000000
v 6.324486 -4.735744 1.000000
v 5.017978 3.638662 1.000000
vt 0.440104 0.850170
vt 0.464810 0.825546
vt 0.494758 0.842810
vt 0.485672 0.876492
vt 0.529328 0.842787
vt 0.538304 0.876505
vt 0.559250 0.825478
vt 0.583882 0.850183
vt 0.576509 0.795528
vt 0.610189 0.804607
vt 0.576483 0.760963
vt 0.610189 0.751988
vt 0.559179 0.731040
vt 0.583885 0.706416
vt 0.529232 0.713776
vt 0.538318 0.680094
vt 0.494662 0.713799
vt 0.485686 0.680081
vt 0.464739 0.731108
vt 0.440107 0.706403
vt 0.447480 0.761058
vt 0.413801 0.751979
vt 0.447507 0.795623
vt 0.413801 0.804598
vt 0.488427 0.801900
vt 0.503388 0.810521
vt 0.520655 0.810508
vt 0.535601 0.801861
vt 0.544222 0.786900
vt 0.544207 0.769634
vt 0.535562 0.754686
vt 0.520601 0.746065
vt 0.503334 0.746078
vt 0.488388 0.754725
vt 0.479768 0.769686
vt 0.479782 0.786952
vt 0.511995 0.778293
vt 0.374906 0.796630
vt 0.305769 0.796630
vt 0.305769 0.698536
vt 0.374906 0.698536
vt 0.291155 0.796630
vt 0.276542 0.796630
vt 0.276542 0.698536
vt 0.404134 0.796630
vt 0.389520 0.796630
vt 0.404134 0.698536
vt 0.374906 0.841369
vt 0.305769 0.841369
vt 0.305769 0.826755
vt 0.374906 0.826755
vt 0.305769 0.669308
vt 0.374906 0.669308
vt 0.305769 0.815790
vt 0.305769 0.808482
vt 0.374906 0.808482
vt 0.374906 0.815790
vt 0.374906 0.803316
vt 0.305769 0.803316
vt 0.305769 0.803316
vt 0.302116 0.806969
vt 0.294808 0.806969
vt 0.385867 0.806969
vt 0.378559 0.806969
vt 0.374906 0.803316
vt 0.241789 0.746495
vt 0.172652 0.746495
vt 0.172652 0.648400
vt 0.241789 0.648400
vt 0.158038 0.746494
vt 0.143424 0.746494
vt 0.143424 0.648400
vt 0.271016 0.746495
vt 0.256402 0.746495
vt 0.271016 0.648400
vt 0.241789 0.791234
vt 0.172652 0.791234
vt 0.172652 0.776620
vt 0.241789 0.776620
vt 0.172652 0.619173
vt 0.241789 0.619173
vt 0.172652 0.765655
vt 0.172652 0.758347
vt 0.241789 0.758347
vt 0.241789 0.765655
vt 0.241789 0.753181
vt 0.172652 0.753181
vt 0.172652 0.753181
vt 0.168999 0.756834
vt 0.161691 0.756834
vt 0.252749 0.756834
vt 0.245442 0.756834
vt 0.241789 0.753181
vt 0.613184 0.613576
vt 0.613207 0.511088
vt 0.668792 0.613578
vt 0.613238 0.057591
vt 0.335240 0.057592
vt 0.335240 0.001992
vt 0.613238 0.001992
vt 0.585227 0.085666
vt 0.363419 0.085665
vt 0.620571 0.615715
vt 0.833066 0.615715
vt 0.833066 0.998008
vt 0.620571 0.998008
vt 0.279716 0.613557
vt 0.279643 0.057596
vt 0.335312 0.613550
vt 0.001663 0.057633
vt 0.001736 0.613594
vt 0.001663 0.800667
vt 0.001663 0.654330
vt 0.103886 0.654330
vt 0.103886 0.800667
vt 0.585203 0.475069
vt 0.103886 0.618807
vt 0.001663 0.618807
vt 0.001663 0.836190
vt 0.103886 0.836190
vt 0.139409 0.800667
vt 0.139409 0.654330
vt 0.368275 0.089443
vt 0.368321 0.471283
vt 0.363465 0.475061
vt 0.580348 0.471292
vt 0.580369 0.089444
vt 0.449836 0.613628
vt 0.449818 0.649159
vt 0.335279 0.669153
vt 0.613285 0.669242
vt 0.596252 0.649203
vt 0.596166 0.613650
vt 0.596197 0.511382
vt 0.449810 0.511365
vt 0.668837 0.057595
vn -0.225048 0.129932 0.965645
vn -0.172554 0.099624 0.979949
vn -0.099624 0.172554 0.979949
vn -0.129931 0.225048 0.965646
vn 0.000000 0.199248 0.979949
vn 0.000000 0.259863 0.965645
vn 0.099624 0.172554 0.979949
vn 0.129932 0.225048 0.965646
vn 0.172554 0.099624 0.979949
vn 0.225048 0.129932 0.965645
vn 0.199248 -0.000000 0.979949
vn 0.259863 -0.000000 0.965645
vn 0.172554 -0.099624 0.979949
vn 0.225048 -0.129932 0.965645
vn 0.099624 -0.172554 0.979949
vn 0.129932 -0.225048 0.965645
vn -0.000000 -0.199248 0.979949
vn -0.000000 -0.259863 0.965645
vn -0.099624 -0.172554 0.979949
vn -0.129932 -0.225048 0.965645
vn -0.172554 -0.099624 0.979949
vn -0.225048 -0.129932 0.965645
vn -0.199248 -0.000000 0.979949
vn -0.259863 -0.000000 0.965645
vn -0.036022 0.020797 0.999135
vn -0.020797 0.036022 0.999135
vn -0.000000 0.041595 0.999135
vn 0.020797 0.036022 0.999135
vn 0.036022 0.020797 0.999135
vn 0.041595 -0.000000 0.999135
vn 0.036022 -0.020797 0.999135
vn 0.020797 -0.036022 0.999135
vn 0.000000 -0.041595 0.999135
vn -0.020797 -0.036022 0.999135
vn -0.036022 -0.020797 0.999135
vn -0.041595 -0.000000 0.999135
vn 0.000000 -0.000000 1.000000
vn 0.000000 0.000000 1.000000
vn 0.000000 0.000000 1.000000
vn 0.000000 0.000000 1.000000
vn 0.000000 0.000000 1.000000
vn 0.000000 1.000000 0.000000
vn 0.000000 1.000000 0.000000
vn 0.000000 1.000000 0.000000
vn -0.000000 -1.000000 0.000002
vn -0.000000 -1.000000 0.000002
vn -0.000000 -1.000000 0.000002
vn 1.000000 0.000000 0.000000
vn 1.000000 0.000000 0.000000
vn 1.000000 0.000000 0.000000
vn 1.000000 0.000000 0.000000
vn 0.000000 1.000000 0.000000
vn 0.000000 1.000000 0.000000
vn 0.000000 1.000000 0.000000
vn 0.000000 1.000000 0.000000
vn -1.000000 0.000000 0.000000
vn -1.000000 0.000000 0.000000
vn -1.000000 0.000000 0.000000
vn -1.000000 0.000000 0.000000
vn 0.000000 -1.000000 -0.000001
vn 0.000000 -1.000000 -0.000001
vn 0.000000 -1.000000 -0.000001
vn 0.000000 -1.000000 -0.000001
vn 0.727430 0.000000 -0.686182
vn 0.948696 0.000000 0.316191
vn 0.948696 0.000000 0.316191
vn 0.727431 0.000000 -0.686181
vn 0.333141 0.000000 0.942877
vn 0.333141 0.000000 0.942877
vn 0.000000 1.000000 0.000000
vn 0.000000 1.000000 0.000000
vn 0.000000 1.000000 0.000000
vn 0.333141 0.000000 -0.942877
vn 0.333141 0.000000 -0.942877
vn 0.000000 1.000000 0.000000
vn 0.000000 1.000000 0.000000
vn 0.000000 1.000000 0.000000
vn 0.000000 1.000000 0.000000
vn 0.000000 1.000000 0.000000
vn 0.000000 1.000000 0.000000
vn -0.000003 -1.000000 0.000000
vn -0.000003 -1.000000 0.000000
vn -0.000003 -1.000000 0.000000
vn -0.000001 -1.000000 -0.000002
vn -0.000001 -1.000000 -0.000002
vn -0.000001 -1.000000 -0.000002
vn 0.000000 -1.000000 -0.000001
vn 0.000000 -1.000000 -0.000001
vn 0.000000 -1.000000 -0.000001
vn 0.000000 0.000000 1.000000
vn 0.000000 0.000000 1.000000
vn 0.000000 0.000000 1.000000
vn 0.000000 0.000000 1.000000
vn 0.000000 1.000000 0.000000
vn 0.000000 1.000000 0.000000
vn 0.000000 1.000000 0.000000
vn -0.000000 -1.000000 0.000002
vn -0.000000 -1.000000 0.000002
vn -0.000000 -1.000000 0.000002
vn 1.000000 0.000000 0.000000
vn 1.000000 0.000000 0.000000
vn 1.000000 0.000000 0.000000
vn 1.000000 0.000000 0.000000
vn 0.000000 1.000000 0.000000
vn 0.000000 1.000000 0.000000
vn 0.000000 1.000000 0.000000
vn 0.000000 1.000000 0.000000
vn -1.000000 0.000000 0.000000
vn -1.000000 0.000000 0.000000
vn -1.000000 0.000000 0.000000
vn -1.000000 0.000000 0.000000
vn 0.000000 -1.000000 -0.000001
vn 0.000000 -1.000000 -0.000001
vn 0.000000 -1.000000 -0.000001
vn 0.000000 -1.000000 -0.000001
vn 0.727430 0.000000 -0.686182
vn 0.948696 0.000000 0.316191
vn 0.948696 0.000000 0.316191
vn 0.727431 0.000000 -0.686181
vn 0.333141 0.000000 0.942877
vn 0.333141 0.000000 0.942877
vn 0.000000 1.000000 0.000000
vn 0.000000 1.000000 0.000000
vn 0.000000 1.000000 0.000000
vn 0.333141 0.000000 -0.942877
vn 0.333141 0.000000 -0.942877
vn 0.000000 1.000000 0.000000
vn 0.000000 1.000000 0.000000
vn 0.000000 1.000000 0.000000
vn 0.000000 1.000000 0.000000
vn 0.000000 1.000000 0.000000
vn 0.000000 1.000000 0.000000
vn -0.000003 -1.000000 0.000000
vn -0.000003 -1.000000 0.000000
vn -0.000003 -1.000000 0.000000
vn -0.000001 -1.000000 0.000000
vn -0.000001 -1.000000 0.000000
vn -0.000001 -1.000000 0.000000
vn 0.000000 -1.000000 -0.000002
vn 0.000000 -1.000000 -0.000002
vn 0.000000 -1.000000 -0.000002
vn 0.000000 -1.000000 0.000000
vn 0.000000 -1.000000 0.000000
vn 0.000000 -1.000000 0.000000
vn -1.000000 0.000000 0.000000
vn -1.000000 0.000000 0.000000
vn -1.000000 0.000000 0.000000
vn -1.000000 0.000000 0.000000
vn 0.000000 0.000000 1.000000
vn 0.000000 0.000000 1.000000
vn 0.000000 0.000000 1.000000
vn 0.000000 0.000000 1.000000
vn 0.000000 0.000000 1.000000
vn 0.000000 0.000000 1.000000
vn 0.000000 0.000000 1.000000
vn 0.000000 0.000000 1.000000
vn 0.000000 1.000000 0.000000
vn 0.000000 1.000000 0.000000
vn 0.000000 1.000000 0.000000
vn 0.000000 1.000000 0.000000
vn 0.000000 0.000000 -1.000000
vn 0.000000 0.000000 -1.000000
vn 0.000000 0.000000 -1.000000
vn 0.000000 0.000000 -1.000000
vn 0.000000 0.000000 1.000000
vn 0.000000 0.000000 1.000000
vn 0.000000 0.000000 1.000000
vn 0.000000 0.000000 1.000000
vn 0.000000 0.000000 1.000000
vn 0.000000 0.000000 1.000000
vn 0.000000 0.000000 1.000000
vn 0.000000 0.000000 1.000000
vn 0.000000 -1.000000 0.000000
vn 0.000000 -1.000000 0.000000
vn 0.000000 -1.000000 0.000000
vn 0.000000 -1.000000 0.000000
vn 0.000000 1.000000 0.000000
vn 0.000000 1.000000 0.000000
vn 0.000000 1.000000 0.000000
vn 0.000000 1.000000 0.000000
vn 1.000000 0.000000 0.000000
vn 1.000000 0.000000 0.000000
vn 1.000000 0.000000 0.000000
vn 1.000000 0.000000 0.000000
vn 0.000000 -0.451370 0.892337
vn 0.000000 -0.451370 0.892337
vn 0.000000 -0.451370 0.892337
vn 0.000000 -0.451370 0.892337
vn -0.560036 0.000000 0.828468
vn -0.560036 0.000000 0.828468
vn -0.560036 0.000000 0.828468
vn -0.560036 0.000000 0.828468
vn 0.000000 0.451370 0.892337
vn 0.000000 0.451370 0.892337
vn 0.000000 0.451370 0.892337
vn 0.000000 0.451370 0.892337
vn 0.560039 0.000000 0.828466
vn 0.560039 0.000000 0.828466
vn 0.560039 0.000000 0.828466
vn 0.560039 0.000000 0.828466
vn 1.000000 0.001021 0.000000
vn 1.000000 0.001021 0.000000
vn 1.000000 0.001021 0.000000
vn 1.000000 0.001021 0.000000
vn 0.999976 -0.006872 0.000000
vn 0.999976 -0.006872 0.000000
vn 0.999976 -0.006872 0.000000
vn 0.999976 -0.006872 0.000000
vn 0.999983 0.000000 -0.005831
vn 0.999983 0.000000 -0.005831
vn 0.999983 0.000000 -0.005831
vn 0.999983 0.000000 -0.005831
vn 0.000000 0.000000 1.000000
vn 0.000000 0.000000 1.000000
vn 0.000000 0.000000 1.000000
vn 0.000000 0.000000 1.000000
vn -0.000000 0.000000 1.000000
vn -0.000000 0.000000 1.000000
vn -0.000000 0.000000 1.000000
vn -0.000000 0.000000 1.000000
vn 0.000000 0.000000 1.000000
vn 0.000000 0.000000 1.000000
vn 0.000000 0.000000 1.000000
vn 0.000000 0.000000 1.000000
vn 0.000000 0.000000 1.000000
vn 0.000000 0.000000 1.000000
vn 0.000000 0.000000 1.000000
vn 0.000000 0.000000 1.000000
vn 0.000000 0.000000 1.000000
vn 0.000000 0.000000 1.000000
vn 0.000000 -1.000000 -0.000000
vn 0.000000 -1.000000 -0.000000
vn 0.000000 -1.000000 -0.000000
vn 0.000000 -1.000000 -0.000000
vn 0.000000 0.000000 1.000000
vn 0.000000 0.000000 1.000000
vn 0.000000 0.000000 1.000000
s 1
g Palm
f 1/1/1 4/2/2 3/3/3 2/4/4
f 2/4/4 3/3/3 6/5/5 5/6/6
f 5/6/6 6/5/5 8/7/7 7/8/8
f 7/8/8 8/7/7 10/9/9 9/10/10
f 9/10/10 10/9/9 12/11/11 11/12/12
f 11/12/12 12/11/11 14/13/13 13/14/14
f 13/14/14 14/13/13 16/15/15 15/16/16
f 15/16/16 16/15/15 18/17/17 17/18/18
f 17/18/18 18/17/17 20/19/19 19/20/20
f 19/20/20 20/19/19 22/21/21 21/22/22
f 21/22/22 22/21/21 24/23/23 23/24/24
f 23/24/24 24/23/23 4/2/2 1/1/1
f 4/2/2 26/25/25 25/26/26 3/3/3
f 3/3/3 25/26/26 27/27/27 6/5/5
f 6/5/5 27/27/27 28/28/28 8/7/7
f 8/7/7 28/28/28 29/29/29 10/9/9
f 10/9/9 29/29/29 30/30/30 12/11/11
f 12/11/11 30/30/30 31/31/31 14/13/13
f 14/13/13 31/31/31 32/32/32 16/15/15
f 16/15/15 32/32/32 33/33/33 18/17/17
f 18/17/17 33/33/33 34/34/34 20/19/19
f 20/19/19 34/34/34 35/35/35 22/21/21
f 22/21/21 35/35/35 36/36/36 24/23/23
f 24/23/23 36/36/36 26/25/25 4/2/2
f 26/25/25 37/37/37 25/26/26
f 25/26/26 37/37/37 27/27/27
f 27/27/27 37/37/37 28/28/28
f 28/28/28 37/37/37 29/29/29
f 29/29/29 37/37/37 30/30/30
f 30/30/30 37/37/37 31/31/31
f 31/31/31 37/37/37 32/32/32
f 32/32/32 37/37/37 33/33/33
f 33/33/33 37/37/37 34/34/34
f 34/34/34 37/37/37 35/35/35
f 35/35/35 37/37/37 36/36/36
f 36/36/36 37/37/37 26/25/25
s 2
f 38/38/38 41/39/39 40/40/40 39/41/41
s off
f 42/42/42 44/43/43 43/44/44
f 45/45/45 47/46/46 46/47/47
f 45/48/48 44/49/49 42/50/50 47/51/51
f 41/39/52 42/42/53 43/44/54 40/40/55
f 39/41/56 40/40/57 43/52/58 46/53/59
f 47/46/60 38/38/61 39/41/62 46/47/63
s 2
f 48/54/64 51/55/65 50/56/66 49/57/67
f 38/38/38 53/58/68 52/59/69 41/39/39
s off
f 41/39/70 52/60/71 42/42/72
s 2
f 47/51/73 42/50/74 48/54/64 49/57/67
f 50/56/66 51/55/65 52/59/69 53/58/68
s off
f 51/61/75 48/62/76 42/42/77
f 52/60/78 51/61/79 42/42/80
f 47/46/81 49/63/82 50/64/83
f 47/46/84 50/64/85 53/65/86
f 47/46/87 53/65/88 38/38/89
s 4
f 54/66/90 57/67/91 56/68/92 55/69/93
s off
f 58/70/94 60/71/95 59/72/96
f 61/73/97 63/74/98 62/75/99
f 61/76/100 60/77/101 58/78/102 63/79/103
f 57/67/104 58/70/105 59/72/106 56/68/107
f 55/69/108 56/68/109 59/80/110 62/81/111
f 63/74/112 54/66/113 55/69/114 62/75/115
s 4
f 64/82/116 67/83/117 66/84/118 65/85/119
f 54/66/90 69/86/120 68/87/121 57/67/91
s off
f 57/67/122 68/88/123 58/70/124
s 4
f 63/79/125 58/78/126 64/82/116 65/85/119
f 66/84/118 67/83/117 68/87/121 69/86/120
s off
f 67/89/127 64/90/128 58/70/129
f 68/88/130 67/89/131 58/70/132
f 63/74/133 65/91/134 66/92/135
f 63/74/136 66/92/137 69/93/138
f 63/74/139 69/93/140 54/66/141
f 70/94/142 72/95/143 71/96/144
f 73/97/145 76/98/146 75/99/147 74/100/148
f 76/98/149 73/97/150 78/101/151 77/102/152
f 79/103/153 82/104/154 81/105/155 80/106/156
f 83/107/157 75/108/158 76/98/159 84/109/160
f 74/110/161 75/108/162 83/107/163 71/111/164
f 85/112/165 88/113/166 87/114/167 86/115/168
f 89/116/169 78/101/170 73/97/171 72/95/172
f 90/117/173 87/114/174 88/113/175 91/118/176
f 92/119/177 85/112/178 86/115/179 93/120/180
f 93/121/181 86/115/182 87/114/183 90/122/184
f 77/102/185 79/123/186 80/124/187 94/125/188
f 94/125/189 80/124/190 81/126/191 89/116/192
f 89/116/193 81/126/194 82/127/195 78/101/196
f 78/101/197 82/127/198 79/123/199 77/102/200
f 84/109/201 91/128/202 88/129/203 83/130/204
f 71/131/205 85/132/206 92/133/207 70/94/208
f 83/130/209 88/129/210 85/132/211 71/131/212
f 84/109/213 76/98/214 77/102/215 94/125/216
f 94/125/217 89/116/218 93/134/219 90/135/220
f 84/109/221 90/135/222 91/128/223
f 84/109/224 94/125/225 90/135/226
f 72/95/227 70/94/228 92/133/229 93/134/230
f 72/95/231 73/97/232 74/136/233 71/96/234
f 89/116/235 72/95/236 93/134/237
