# This file uses centimeters as units for non-parametric coordinates.

g default
v -1.500000 0.721417 0.629460
v 1.500000 0.721417 0.629460
v -1.500000 0.721417 0.829460
v 1.500000 0.721417 0.829460
v -1.500000 1.221417 0.829460
v 1.500000 1.221417 0.829460
v -1.500000 1.221417 0.629460
v 1.500000 1.221417 0.629460
v 2.353672 1.911178 0.306317
v 2.203671 1.911178 0.306317
v 2.128671 1.781274 0.306317
v 2.203671 1.651370 0.306317
v 2.353672 1.651370 0.306317
v 2.428672 1.781274 0.306317
v 2.353672 1.911178 0.506317
v 2.203671 1.911178 0.506317
v 2.128671 1.781274 0.506317
v 2.203671 1.651370 0.506317
v 2.353672 1.651370 0.506317
v 2.428672 1.781274 0.506317
v 2.278672 1.781274 0.506317
v 2.390332 -1.873424 0.306317
v 2.421243 -1.726643 0.306317
v 2.309583 -1.626483 0.306317
v 2.167011 -1.673103 0.306317
v 2.136100 -1.819884 0.306317
v 2.247760 -1.920044 0.306317
v 2.390332 -1.873424 0.506317
v 2.421243 -1.726643 0.506317
v 2.309583 -1.626483 0.506317
v 2.167011 -1.673103 0.506317
v 2.136100 -1.819884 0.506317
v 2.247760 -1.920044 0.506317
v 2.278672 -1.773263 0.506317
v -2.361338 -1.904951 0.306317
v -2.211383 -1.901306 0.306317
v -2.139562 -1.769618 0.306317
v -2.217696 -1.641575 0.306317
v -2.367652 -1.645221 0.306317
v -2.439473 -1.776909 0.306317
v -2.361338 -1.904951 0.506317
v -2.211383 -1.901306 0.506317
v -2.139562 -1.769618 0.506317
v -2.217696 -1.641575 0.506317
v -2.367652 -1.645221 0.506317
v -2.439473 -1.776909 0.506317
v -2.289517 -1.773263 0.506317
v -2.399109 1.883693 0.306317
v -2.433011 1.737575 0.306317
v -2.323419 1.635155 0.306317
v -2.179926 1.678855 0.306317
v -2.146024 1.824974 0.306317
v -2.255616 1.927393 0.306317
v -2.399109 1.883693 0.506317
v -2.433011 1.737575 0.506317
v -2.323419 1.635155 0.506317
v -2.179926 1.678855 0.506317
v -2.146024 1.824974 0.506317
v -2.255616 1.927393 0.506317
v -2.289517 1.781274 0.506317
v -2.500000 -1.946351 0.410622
v 2.500000 -1.946351 0.410622
v -2.500000 1.973302 0.427315
v 2.500000 1.973302 0.427315
v -2.120089 -1.648526 0.411891
v 2.120089 -1.648526 0.411891
v 2.120089 1.675478 0.426046
v -2.120089 1.675478 0.426046
v -2.120089 -1.649836 0.719648
v 2.120089 -1.649836 0.719648
v 2.120089 1.674168 0.733804
v -2.120089 1.674168 0.733804
v 2.120089 -0.497073 0.724557
v -2.120089 -0.497073 0.724556
v 2.120089 -1.328075 0.721018
v -2.120089 -1.328075 0.721018
v -0.668674 -0.497073 0.724556
v -0.668674 -1.328075 0.721017
v -1.992527 -0.497073 0.724556
v -1.992527 -1.328075 0.721017
v 0.552301 -0.497073 0.724556
v 0.552301 -1.328075 0.721017
v 0.651316 -0.497073 0.724556
v 0.651316 -1.328075 0.721017
v -0.766961 -0.497073 0.724556
v -0.766961 -1.328075 0.721017
v -0.668674 -0.495374 0.325519
v -0.668674 -1.326375 0.321980
v 0.552301 -1.326375 0.321980
v 0.552301 -0.495374 0.325519
v -1.992527 -0.495374 0.325519
v -1.992527 -1.326375 0.321980
v -0.766961 -1.326375 0.321980
v -0.766961 -0.495374 0.325519
v -0.507810 -0.607773 1.009458
v -0.507810 -1.219806 1.006851
v 0.391438 -1.219806 1.006851
v 0.391438 -0.607773 1.009458
v -1.831059 -0.607773 1.009458
v -1.831059 -1.219806 1.006851
v -0.928429 -1.219806 1.006851
v -0.928429 -0.607773 1.009458
v -2.500000 -1.942307 -0.538624
v 2.500000 -1.942307 -0.538624
v -2.500000 1.977345 -0.521931
v 2.500000 1.977345 -0.521931
v 1.988017 -0.497073 0.724557
v 1.988017 -1.328075 0.721018
v 0.651316 -0.495373 0.325366
v 0.651316 -1.326375 0.321827
v 1.988017 -1.326375 0.321828
v 1.988017 -0.495373 0.325367
v 0.818601 -0.602271 1.005875
v 0.818601 -1.225277 1.003222
v 1.820732 -1.225277 1.003222
v 1.820732 -0.602271 1.005875
vt 0.688787 0.851169
vt 0.688787 0.546368
vt 0.709106 0.546368
vt 0.709107 0.851169
vt 0.759906 0.546368
vt 0.759907 0.851169
vt 0.780226 0.546368
vt 0.780227 0.851169
vt 0.688787 0.495569
vt 0.709106 0.495569
vt 0.688787 0.901968
vt 0.709107 0.901968
vt 0.956511 0.684716
vt 0.956511 0.699956
vt 0.936191 0.699956
vt 0.936191 0.684716
vt 0.956511 0.715196
vt 0.936191 0.715196
vt 0.956511 0.730436
vt 0.936191 0.730436
vt 0.956511 0.745676
vt 0.936191 0.745676
vt 0.956511 0.760916
vt 0.936191 0.760916
vt 0.956511 0.776156
vt 0.936191 0.776156
vt 0.417631 0.729348
vt 0.417631 0.714108
vt 0.430830 0.721728
vt 0.430830 0.706488
vt 0.444028 0.714108
vt 0.444028 0.729348
vt 0.430830 0.736968
vt 0.806089 0.696592
vt 0.806089 0.711832
vt 0.785769 0.711832
vt 0.785769 0.696592
vt 0.806089 0.727072
vt 0.785769 0.727072
vt 0.806089 0.742312
vt 0.785769 0.742312
vt 0.806089 0.757552
vt 0.785769 0.757552
vt 0.806089 0.772792
vt 0.785769 0.772792
vt 0.806089 0.788032
vt 0.785769 0.788032
vt 0.431486 0.759036
vt 0.431486 0.743796
vt 0.444684 0.751416
vt 0.444684 0.736176
vt 0.457883 0.743796
vt 0.457883 0.759036
vt 0.444684 0.766656
vt 0.982241 0.690654
vt 0.982241 0.705894
vt 0.961921 0.705894
vt 0.961921 0.690654
vt 0.982241 0.721134
vt 0.961921 0.721134
vt 0.982241 0.736374
vt 0.961921 0.736374
vt 0.982241 0.751614
vt 0.961921 0.751614
vt 0.982241 0.766854
vt 0.961921 0.766854
vt 0.982241 0.782094
vt 0.961921 0.782094
vt 0.469092 0.755078
vt 0.469092 0.739838
vt 0.482290 0.747458
vt 0.482290 0.732218
vt 0.495488 0.739838
vt 0.495488 0.755078
vt 0.482290 0.762698
vt 0.835778 0.688675
vt 0.835778 0.703915
vt 0.815458 0.703915
vt 0.815458 0.688675
vt 0.835778 0.719155
vt 0.815458 0.719155
vt 0.835778 0.734395
vt 0.815458 0.734395
vt 0.835778 0.749635
vt 0.815458 0.749635
vt 0.835778 0.764875
vt 0.815458 0.764875
vt 0.835778 0.780115
vt 0.815458 0.780115
vt 0.449299 0.729348
vt 0.449299 0.714108
vt 0.462498 0.721728
vt 0.462498 0.706488
vt 0.475696 0.714108
vt 0.475696 0.729348
vt 0.462498 0.736968
vt 0.966740 0.033149
vt 0.966721 0.463956
vt 0.934031 0.463955
vt 0.934031 0.450560
vt 0.934037 0.314744
vt 0.934037 0.304683
vt 0.934041 0.180623
vt 0.934041 0.170633
vt 0.934044 0.046111
vt 0.934042 0.033149
vt 0.496677 0.098324
vt 0.496673 0.606328
vt 0.466415 0.567729
vt 0.466417 0.136923
vt 0.098435 0.606324
vt 0.128694 0.567725
vt 0.098435 0.098330
vt 0.128695 0.136929
vt 0.998008 0.033151
vt 0.997989 0.463957
vt 0.966723 0.495223
vt 0.629010 0.495220
vt 0.629010 0.463953
vt 0.849608 0.463954
vt 0.597742 0.463953
vt 0.597742 0.033153
vt 0.629010 0.033153
vt 0.629011 0.001885
vt 0.966740 0.001880
vt 0.849610 0.033152
vt 0.849608 0.463954
vt 0.849608 0.463954
vt 0.849608 0.463954
vt 0.849608 0.463954
vt 0.849608 0.463954
vt 0.849608 0.463954
vt 0.849612 0.450537
vt 0.849581 0.170632
vt 0.849581 0.180621
vt 0.849610 0.046113
vt 0.280232 0.779231
vt 0.342415 0.779231
vt 0.342415 0.870594
vt 0.280232 0.870594
vt 0.849598 0.304680
vt 0.849598 0.314740
vt 0.072412 0.777265
vt 0.134595 0.777266
vt 0.134595 0.868972
vt 0.072412 0.868972
vt 0.683808 0.498001
vt 0.683807 0.582432
vt 0.643265 0.582432
vt 0.643265 0.498001
vt 0.683807 0.706482
vt 0.643264 0.706482
vt 0.683807 0.790913
vt 0.643264 0.790913
vt 0.683808 0.914963
vt 0.643264 0.914963
vt 0.588803 0.612792
vt 0.588803 0.697222
vt 0.548261 0.697222
vt 0.548261 0.612792
vt 0.588803 0.821738
vt 0.548261 0.821738
vt 0.502739 0.821741
vt 0.502739 0.737310
vt 0.543281 0.737310
vt 0.543281 0.821741
vt 0.502739 0.612794
vt 0.543281 0.612794
vt 0.269108 0.707800
vt 0.353539 0.707801
vt 0.412834 0.762887
vt 0.412834 0.886938
vt 0.353539 0.942025
vt 0.269108 0.942025
vt 0.209812 0.886938
vt 0.209812 0.762887
vt 0.061289 0.705820
vt 0.145719 0.705821
vt 0.205015 0.760860
vt 0.205015 0.885377
vt 0.145719 0.940417
vt 0.061289 0.940417
vt 0.001992 0.885377
vt 0.001992 0.760860
vt 0.593121 0.098326
vt 0.593119 0.606328
vt 0.098434 0.001886
vt 0.496676 0.001880
vt 0.496673 0.702772
vt 0.098435 0.702768
vt 0.001992 0.606324
vt 0.001992 0.098330
vt 0.855756 0.571221
vt 0.919054 0.571221
vt 0.919054 0.673037
vt 0.855757 0.673038
vt 0.597742 0.938479
vt 0.597742 0.854046
vt 0.638300 0.854046
vt 0.638300 0.938479
vt 0.597742 0.718236
vt 0.638299 0.718236
vt 0.597742 0.633806
vt 0.638299 0.633806
vt 0.597742 0.498000
vt 0.638299 0.498000
vt 0.845190 0.499980
vt 0.929621 0.499979
vt 0.989042 0.554225
vt 0.989042 0.690033
vt 0.929621 0.744279
vt 0.845190 0.744280
vt 0.785769 0.690034
vt 0.785769 0.554225
vn 0.000000 -1.000000 0.000000
vn 0.000000 -1.000000 0.000000
vn 0.000000 -1.000000 0.000000
vn 0.000000 -1.000000 0.000000
vn 0.000000 0.000000 1.000000
vn 0.000000 0.000000 1.000000
vn 0.000000 0.000000 1.000000
vn 0.000000 0.000000 1.000000
vn 0.000000 1.000000 0.000000
vn 0.000000 1.000000 0.000000
vn 0.000000 1.000000 0.000000
vn 0.000000 1.000000 0.000000
vn 1.000000 0.000000 0.000000
vn 1.000000 0.000000 0.000000
vn 1.000000 0.000000 0.000000
vn 1.000000 0.000000 0.000000
vn -1.000000 0.000000 0.000000
vn -1.000000 0.000000 0.000000
vn -1.000000 0.000000 0.000000
vn -1.000000 0.000000 0.000000
vn 0.000000 1.000000 0.000000
vn 0.000000 1.000000 0.000000
vn 0.000000 1.000000 0.000000
vn 0.000000 1.000000 0.000000
vn -0.866025 0.500000 0.000000
vn -0.866025 0.500000 0.000000
vn -0.866025 0.500000 0.000000
vn -0.866025 0.500000 0.000000
vn -0.866025 -0.500000 0.000000
vn -0.866025 -0.500000 0.000000
vn -0.866025 -0.500000 0.000000
vn -0.866025 -0.500000 0.000000
vn 0.000000 -1.000000 0.000000
vn 0.000000 -1.000000 0.000000
vn 0.000000 -1.000000 0.000000
vn 0.000000 -1.000000 0.000000
vn 0.866025 -0.500000 0.000000
vn 0.866025 -0.500000 0.000000
vn 0.866025 -0.500000 0.000000
vn 0.866025 -0.500000 0.000000
vn 0.866025 0.500000 0.000000
vn 0.866025 0.500000 0.000000
vn 0.866025 0.500000 0.000000
vn 0.866025 0.500000 0.000000
vn 0.000000 0.000000 1.000000
vn 0.000000 0.000000 1.000000
vn 0.000000 0.000000 1.000000
vn 0.000000 0.000000 1.000000
vn 0.000000 0.000000 1.000000
vn 0.000000 0.000000 1.000000
vn 0.000000 0.000000 1.000000
vn 0.978536 -0.206075 0.000000
vn 0.978536 -0.206075 0.000000
vn 0.978536 -0.206075 0.000000
vn 0.978536 -0.206075 0.000000
vn 0.667735 0.744400 0.000000
vn 0.667735 0.744400 0.000000
vn 0.667735 0.744400 0.000000
vn 0.667735 0.744400 0.000000
vn -0.310801 0.950475 0.000000
vn -0.310801 0.950475 0.000000
vn -0.310801 0.950475 0.000000
vn -0.310801 0.950475 0.000000
vn -0.978536 0.206074 0.000000
vn -0.978536 0.206074 0.000000
vn -0.978536 0.206074 0.000000
vn -0.978536 0.206074 0.000000
vn -0.667734 -0.744400 0.000000
vn -0.667734 -0.744400 0.000000
vn -0.667734 -0.744400 0.000000
vn -0.667734 -0.744400 0.000000
vn 0.310801 -0.950475 0.000000
vn 0.310801 -0.950475 0.000000
vn 0.310801 -0.950475 0.000000
vn 0.310801 -0.950475 0.000000
vn -0.000000 0.000000 1.000000
vn -0.000000 0.000000 1.000000
vn 0.000000 0.000000 1.000000
vn 0.000000 0.000000 1.000000
vn 0.000000 0.000000 1.000000
vn 0.000000 0.000000 1.000000
vn -0.000000 0.000000 1.000000
vn 0.024301 -0.999705 0.000000
vn 0.024301 -0.999705 0.000000
vn 0.024301 -0.999705 0.000000
vn 0.024301 -0.999705 0.000000
vn 0.877920 -0.478808 0.000000
vn 0.877920 -0.478808 0.000000
vn 0.877920 -0.478808 0.000000
vn 0.877920 -0.478808 0.000000
vn 0.853619 0.520898 0.000000
vn 0.853619 0.520898 0.000000
vn 0.853619 0.520898 0.000000
vn 0.853619 0.520898 0.000000
vn -0.024301 0.999705 0.000000
vn -0.024301 0.999705 0.000000
vn -0.024301 0.999705 0.000000
vn -0.024301 0.999705 0.000000
vn -0.877921 0.478806 0.000000
vn -0.877921 0.478806 0.000000
vn -0.877921 0.478806 0.000000
vn -0.877921 0.478806 0.000000
vn -0.853619 -0.520899 0.000000
vn -0.853619 -0.520899 0.000000
vn -0.853619 -0.520899 0.000000
vn -0.853619 -0.520899 0.000000
vn 0.000000 0.000000 1.000000
vn 0.000000 0.000000 1.000000
vn -0.000000 0.000000 1.000000
vn -0.000000 0.000000 1.000000
vn -0.000000 0.000000 1.000000
vn 0.000000 0.000000 1.000000
vn 0.000000 0.000000 1.000000
vn -0.974125 0.226011 0.000000
vn -0.974125 0.226011 0.000000
vn -0.974125 0.226011 0.000000
vn -0.974125 0.226011 0.000000
vn -0.682794 -0.730611 0.000000
vn -0.682794 -0.730611 0.000000
vn -0.682794 -0.730611 0.000000
vn -0.682794 -0.730611 0.000000
vn 0.291330 -0.956623 0.000000
vn 0.291330 -0.956623 0.000000
vn 0.291330 -0.956623 0.000000
vn 0.291330 -0.956623 0.000000
vn 0.974125 -0.226011 0.000000
vn 0.974125 -0.226011 0.000000
vn 0.974125 -0.226011 0.000000
vn 0.974125 -0.226011 0.000000
vn 0.682794 0.730611 0.000000
vn 0.682794 0.730611 0.000000
vn 0.682794 0.730611 0.000000
vn 0.682794 0.730611 0.000000
vn -0.291330 0.956623 0.000000
vn -0.291330 0.956623 0.000000
vn -0.291330 0.956623 0.000000
vn -0.291330 0.956623 0.000000
vn -0.000000 0.000000 1.000000
vn -0.000000 0.000000 1.000000
vn 0.000000 0.000000 1.000000
vn 0.000000 0.000000 1.000000
vn 0.000000 0.000000 1.000000
vn 0.000000 0.000000 1.000000
vn -0.000000 0.000000 1.000000
vn 0.000000 -0.004257 0.999991
vn 0.000000 -0.004257 0.999991
vn 0.000000 -0.004257 0.999991
vn 0.000000 -0.004257 0.999991
vn 0.000000 -0.004257 0.999991
vn 0.000000 -0.004257 0.999991
vn 0.000000 -0.004257 0.999991
vn 0.000000 -0.004257 0.999991
vn 0.000000 -0.004257 0.999991
vn 0.000000 -0.004257 0.999991
vn 0.000000 -0.004260 0.999991
vn 0.000000 -0.004260 0.999991
vn 0.000000 -0.004260 0.999991
vn 0.000000 -0.004260 0.999991
vn 0.000000 -0.004259 0.999991
vn 0.000000 -0.004259 0.999991
vn 0.000000 -0.004259 0.999991
vn 0.000000 -0.004259 0.999991
vn 0.000000 -0.004260 0.999991
vn 0.000000 -0.004260 0.999991
vn 0.000000 -0.004260 0.999991
vn 0.000000 -0.004260 0.999991
vn -0.000000 -0.004259 0.999991
vn -0.000000 -0.004259 0.999991
vn -0.000000 -0.004259 0.999991
vn -0.000000 -0.004259 0.999991
vn 0.000000 -0.999991 -0.004256
vn 0.000000 -0.999991 -0.004256
vn 0.000000 -0.999991 -0.004256
vn 0.000000 -0.999991 -0.004256
vn 1.000000 -0.000000 0.000000
vn 1.000000 -0.000000 0.000000
vn 1.000000 -0.000000 0.000000
vn 1.000000 -0.000000 0.000000
vn 1.000000 -0.000000 0.000000
vn 1.000000 -0.000000 0.000000
vn 0.000000 0.999991 0.004258
vn 0.000000 0.999991 0.004258
vn 0.000000 0.999991 0.004258
vn 0.000000 0.999991 0.004258
vn -1.000000 -0.000000 -0.000000
vn -1.000000 -0.000000 -0.000000
vn -1.000000 -0.000000 -0.000000
vn -1.000000 -0.000000 -0.000000
vn -1.000000 -0.000000 -0.000000
vn -1.000000 -0.000000 -0.000000
vn -0.000000 -0.004259 0.999991
vn -0.000000 -0.004259 0.999991
vn -0.000000 -0.004259 0.999991
vn -0.000000 -0.004259 0.999991
vn -0.000000 -0.004259 0.999991
vn -0.000000 -0.004259 0.999991
vn -0.000000 -0.004259 0.999991
vn -0.000000 -0.004259 0.999991
vn -0.000000 -0.004259 0.999991
vn -0.000000 -0.004259 0.999991
vn 0.000000 -0.004259 0.999991
vn 0.000000 -0.004259 0.999991
vn 0.000000 -0.004259 0.999991
vn 0.000000 -0.004259 0.999991
vn 0.000001 -0.004259 0.999991
vn 0.000001 -0.004259 0.999991
vn 0.000001 -0.004259 0.999991
vn 0.000001 -0.004259 0.999991
vn 0.000001 -0.004258 0.999991
vn 0.000001 -0.004258 0.999991
vn 0.000001 -0.004258 0.999991
vn 0.000001 -0.004258 0.999991
vn 0.000000 -0.004260 0.999991
vn 0.000000 -0.004260 0.999991
vn 0.000000 -0.004260 0.999991
vn 0.000000 -0.004260 0.999991
vn 0.000000 -0.004258 0.999991
vn 0.000000 -0.004258 0.999991
vn 0.000000 -0.004258 0.999991
vn 0.000000 -0.004258 0.999991
vn 0.000000 -0.004260 0.999991
vn 0.000000 -0.004260 0.999991
vn 0.000000 -0.004260 0.999991
vn 0.000000 -0.004260 0.999991
vn 1.000000 0.000000 0.000000
vn 1.000000 0.000000 0.000000
vn 1.000000 0.000000 0.000000
vn 1.000000 0.000000 0.000000
vn 0.000000 0.999991 0.004260
vn 0.000000 0.999991 0.004260
vn 0.000000 0.999991 0.004260
vn 0.000000 0.999991 0.004260
vn -1.000000 0.000000 0.000000
vn -1.000000 0.000000 0.000000
vn -1.000000 0.000000 0.000000
vn -1.000000 0.000000 0.000000
vn -0.000000 -0.999991 -0.004258
vn -0.000000 -0.999991 -0.004258
vn -0.000000 -0.999991 -0.004258
vn -0.000000 -0.999991 -0.004258
vn 1.000000 0.000000 0.000000
vn 1.000000 0.000000 0.000000
vn 1.000000 0.000000 0.000000
vn 1.000000 0.000000 0.000000
vn 0.000000 0.999991 0.004260
vn 0.000000 0.999991 0.004260
vn 0.000000 0.999991 0.004260
vn 0.000000 0.999991 0.004260
vn -1.000000 0.000000 0.000000
vn -1.000000 0.000000 0.000000
vn -1.000000 0.000000 0.000000
vn -1.000000 0.000000 0.000000
vn 0.000000 -0.999991 -0.004258
vn 0.000000 -0.999991 -0.004258
vn 0.000000 -0.999991 -0.004258
vn 0.000000 -0.999991 -0.004258
vn -0.973473 -0.000975 0.228802
vn -0.973473 -0.000975 0.228802
vn -0.973473 -0.000975 0.228802
vn -0.973473 -0.000975 0.228802
vn -0.000000 -0.988109 0.153754
vn -0.000000 -0.988109 0.153754
vn -0.000000 -0.988109 0.153754
vn -0.000000 -0.988109 0.153754
vn 0.973473 -0.000975 0.228802
vn 0.973473 -0.000975 0.228802
vn 0.973473 -0.000975 0.228802
vn 0.973473 -0.000975 0.228802
vn 0.000000 0.986764 0.162165
vn 0.000000 0.986764 0.162165
vn 0.000000 0.986764 0.162165
vn 0.000000 0.986764 0.162165
vn -0.973281 -0.000978 0.229617
vn -0.973281 -0.000978 0.229617
vn -0.973281 -0.000978 0.229617
vn -0.973281 -0.000978 0.229617
vn 0.000000 -0.988109 0.153754
vn 0.000000 -0.988109 0.153754
vn 0.000000 -0.988109 0.153754
vn 0.000000 -0.988109 0.153754
vn 0.973281 -0.000978 0.229617
vn 0.973281 -0.000978 0.229617
vn 0.973281 -0.000978 0.229617
vn 0.973281 -0.000978 0.229617
vn 0.000000 0.986764 0.162165
vn 0.000000 0.986764 0.162165
vn 0.000000 0.986764 0.162165
vn 0.000000 0.986764 0.162165
vn 0.000000 -0.999991 -0.004259
vn 0.000000 -0.999991 -0.004259
vn 0.000000 -0.999991 -0.004259
vn 0.000000 -0.999991 -0.004259
vn -1.000000 0.000000 0.000000
vn -1.000000 0.000000 0.000000
vn -1.000000 0.000000 0.000000
vn -1.000000 0.000000 0.000000
vn 1.000000 0.000000 -0.000000
vn 1.000000 0.000000 -0.000000
vn 1.000000 0.000000 -0.000000
vn 1.000000 0.000000 -0.000000
vn 0.000000 0.999991 0.004259
vn 0.000000 0.999991 0.004259
vn 0.000000 0.999991 0.004259
vn 0.000000 0.999991 0.004259
vn -0.000000 -0.004258 0.999991
vn -0.000000 -0.004258 0.999991
vn -0.000000 -0.004258 0.999991
vn -0.000000 -0.004258 0.999991
vn 1.000000 0.000000 0.000000
vn 1.000000 0.000000 0.000000
vn 1.000000 0.000000 0.000000
vn 1.000000 0.000000 0.000000
vn -0.000000 0.999991 0.004258
vn -0.000000 0.999991 0.004258
vn -0.000000 0.999991 0.004258
vn -0.000000 0.999991 0.004258
vn -1.000000 0.000000 0.000000
vn -1.000000 0.000000 0.000000
vn -1.000000 0.000000 0.000000
vn -1.000000 0.000000 0.000000
vn -0.000000 -0.999991 -0.004258
vn -0.000000 -0.999991 -0.004258
vn -0.000000 -0.999991 -0.004258
vn -0.000000 -0.999991 -0.004258
vn -0.971126 -0.001016 0.238566
vn -0.971126 -0.001016 0.238566
vn -0.971126 -0.001016 0.238566
vn -0.971126 -0.001016 0.238566
vn -0.000000 -0.989172 0.146763
vn -0.000000 -0.989172 0.146763
vn -0.000000 -0.989172 0.146763
vn -0.000000 -0.989172 0.146763
vn 0.971126 -0.001016 0.238566
vn 0.971126 -0.001016 0.238566
vn 0.971126 -0.001016 0.238566
vn 0.971126 -0.001016 0.238566
vn -0.000000 0.987886 0.155182
vn -0.000000 0.987886 0.155182
vn -0.000000 0.987886 0.155182
vn -0.000000 0.987886 0.155182
s off
g pCube3
f 1/1/1 2/2/2 4/3/3 3/4/4
f 3/4/5 4/3/6 6/5/7 5/6/8
f 5/6/9 6/5/10 8/7/11 7/8/12
f 2/2/13 8/9/14 6/10/15 4/3/16
f 7/11/17 1/1/18 3/4/19 5/12/20
f 9/13/21 10/14/22 16/15/23 15/16/24
f 10/14/25 11/17/26 17/18/27 16/15/28
f 11/17/29 12/19/30 18/20/31 17/18/32
f 12/19/33 13/21/34 19/22/35 18/20/36
f 13/21/37 14/23/38 20/24/39 19/22/40
f 14/23/41 9/25/42 15/26/43 20/24/44
s 1
f 15/27/45 16/28/46 21/29/47
f 16/28/46 17/30/48 21/29/47
f 17/30/48 18/31/49 21/29/47
f 18/31/49 19/32/50 21/29/47
f 19/32/50 20/33/51 21/29/47
f 20/33/51 15/27/45 21/29/47
s off
f 22/34/52 23/35/53 29/36/54 28/37/55
f 23/35/56 24/38/57 30/39/58 29/36/59
f 24/38/60 25/40/61 31/41/62 30/39/63
f 25/40/64 26/42/65 32/43/66 31/41/67
f 26/42/68 27/44/69 33/45/70 32/43/71
f 27/44/72 22/46/73 28/47/74 33/45/75
s 2
f 28/48/76 29/49/77 34/50/78
f 29/49/77 30/51/79 34/50/78
f 30/51/79 31/52/80 34/50/78
f 31/52/80 32/53/81 34/50/78
f 32/53/81 33/54/82 34/50/78
f 33/54/82 28/48/76 34/50/78
s off
f 35/55/83 36/56/84 42/57/85 41/58/86
f 36/56/87 37/59/88 43/60/89 42/57/90
f 37/59/91 38/61/92 44/62/93 43/60/94
f 38/61/95 39/63/96 45/64/97 44/62/98
f 39/63/99 40/65/100 46/66/101 45/64/102
f 40/65/103 35/67/104 41/68/105 46/66/106
s 3
f 41/69/107 42/70/108 47/71/109
f 42/70/108 43/72/110 47/71/109
f 43/72/110 44/73/111 47/71/109
f 44/73/111 45/74/112 47/71/109
f 45/74/112 46/75/113 47/71/109
f 46/75/113 41/69/107 47/71/109
s off
f 48/76/114 49/77/115 55/78/116 54/79/117
f 49/77/118 50/80/119 56/81/120 55/78/121
f 50/80/122 51/82/123 57/83/124 56/81/125
f 51/82/126 52/84/127 58/85/128 57/83/129
f 52/84/130 53/86/131 59/87/132 58/85/133
f 53/86/134 48/88/135 54/89/136 59/87/137
s 4
f 54/90/138 55/91/139 60/92/140
f 55/91/139 56/93/141 60/92/140
f 56/93/141 57/94/142 60/92/140
f 57/94/142 58/95/143 60/92/140
f 58/95/143 59/96/144 60/92/140
f 59/96/144 54/90/138 60/92/140
s off
f 69/97/145 70/98/146 75/99/147 108/100/148 84/101/149 82/102/150 78/103/151 86/104/152 80/105/153 76/106/154
f 61/107/155 62/108/156 66/109/157 65/110/158
f 62/108/159 64/111/160 67/112/161 66/109/162
f 64/111/163 63/113/164 68/114/165 67/112/166
f 63/113/167 61/107/168 65/110/169 68/114/170
f 65/115/171 66/116/172 70/98/173 69/97/174
f 66/117/175 67/118/176 71/119/177 73/120/178 75/99/179 70/98/180
f 67/121/181 68/122/182 72/123/183 71/119/184
f 68/124/185 65/125/186 69/97/187 76/106/188 74/126/189 72/123/190
f 74/126/191 79/127/192 85/128/193 77/129/194 81/130/195 83/131/196 107/132/197 73/120/198 71/119/199 72/123/200
f 107/133/201 108/100/202 75/99/203 73/120/204
f 85/134/205 86/104/206 78/103/207 77/135/208
f 74/126/209 76/106/210 80/105/211 79/136/212
f 95/137/213 96/138/214 97/139/215 98/140/216
f 81/141/217 82/102/218 84/101/219 83/142/220
f 99/143/221 100/144/222 101/145/223 102/146/224
f 77/147/225 78/148/226 88/149/227 87/150/228
f 78/148/229 82/151/230 89/152/231 88/149/232
f 82/151/233 81/153/234 90/154/235 89/152/236
f 81/153/237 77/155/238 87/156/239 90/154/240
f 79/157/241 80/158/242 92/159/243 91/160/244
f 80/158/245 86/161/246 93/162/247 92/159/248
f 86/163/249 85/164/250 94/165/251 93/166/252
f 85/164/253 79/167/254 91/168/255 94/165/256
f 87/169/257 88/170/258 96/138/259 95/137/260
f 88/171/261 89/172/262 97/139/263 96/138/264
f 89/173/265 90/174/266 98/140/267 97/139/268
f 90/175/269 87/176/270 95/137/271 98/140/272
f 91/177/273 92/178/274 100/144/275 99/143/276
f 92/179/277 93/180/278 101/145/279 100/144/280
f 93/181/281 94/182/282 102/146/283 101/145/284
f 94/183/285 91/184/286 99/143/287 102/146/288
f 62/108/289 61/107/290 103/185/291 104/186/292
f 61/107/293 63/113/294 105/187/295 103/188/296
f 64/111/297 62/108/298 104/189/299 106/190/300
f 63/113/301 64/111/302 106/191/303 105/192/304
f 113/193/305 114/194/306 115/195/307 116/196/308
f 83/197/309 84/198/310 110/199/311 109/200/312
f 84/198/313 108/201/314 111/202/315 110/199/316
f 108/201/317 107/203/318 112/204/319 111/202/320
f 107/203/321 83/205/322 109/206/323 112/204/324
f 109/207/325 110/208/326 114/194/327 113/193/328
f 110/209/329 111/210/330 115/195/331 114/194/332
f 111/211/333 112/212/334 116/196/335 115/195/336
f 112/213/337 109/214/338 113/193/339 116/196/340
